…
There are negative delays (report before onset) - possibly representing
either data entry errors or positive tests during the incubation period
so hard to characterise as part of the reporting delay distribution.

    df |>
      filter(delay < 0)

    ## # A tibble: 41 × 3
    ##    date_onset report_date delay
    ##    <date>     <date>      <int>
    ##  1 2020-03-08 2020-03-04     -4
    ##  2 2020-03-08 2020-02-27    -10
    ##  3 2020-03-10 2020-03-01     -9
    ##  4 2020-03-11 2020-03-05     -6
    ##  5 2020-03-11 2020-02-21    -19
    ##  6 2020-03-13 2020-03-02    -11
    ##  7 2020-03-17 2020-03-07    -10
    ##  8 2020-03-17 2020-03-13     -4
    ##  9 2020-03-18 2020-03-11     -7
    ## 10 2020-03-19 2020-03-11     -8
    ## # … with 31 more rows
    ## # ℹ Use `print(n = ...)` to see more rows
…
